{
    "name": "leogame.iap",
    "rootNamespace": "",
    "references": [
        "UnityEditor.Purchasing",
        "UnityEngine.Purchasing",
        "UnityEngine.Purchasing.Apple",
        "UnityEngine.Purchasing.AppleCore",
        "UnityEngine.Purchasing.AppleMacos",
        "UnityEngine.Purchasing.AppleMacosStub",
        "UnityEngine.Purchasing.AppleStub",
        "UnityEngine.Purchasing.Codeless",
        "UnityEngine.Purchasing.Security",
        "UnityEngine.Purchasing.SecurityCore",
        "UnityEngine.Purchasing.SecurityStub",
        "UnityEngine.Purchasing.Stores",
        "UnityEngine.Purchasing.WinRT",
        "UnityEngine.Purchasing.WinRTCore",
        "UnityEngine.Purchasing.WinRTStub",
        "Purchasing.Common"
    ],
    "includePlatforms": [],
    "excludePlatforms": [],
    "allowUnsafeCode": false,
    "overrideReferences": false,
    "precompiledReferences": [],
    "autoReferenced": true,
    "defineConstraints": [],
    "versionDefines": [],
    "noEngineReferences": false
}